\select@language {spanish}
\contentsline {section}{\numberline {1}Comando pwd}{1}{section.1}
\contentsline {section}{\numberline {2}Comando cd root}{2}{section.2}
\contentsline {section}{\numberline {3}Comando ls}{2}{section.3}
\contentsline {section}{\numberline {4}Comando tree}{2}{section.4}
\contentsline {section}{\numberline {5}Comando cd home}{3}{section.5}
\contentsline {section}{\numberline {6}Comando mkdir}{3}{section.6}
\contentsline {section}{\numberline {7}Comando sed}{3}{section.7}
\contentsline {section}{\numberline {8}Comando nano}{3}{section.8}
\contentsline {section}{\numberline {9}Comando cat}{4}{section.9}
\contentsline {section}{\numberline {10}Comando updatedb}{4}{section.10}
\contentsline {section}{\numberline {11}Comando find}{4}{section.11}
\contentsline {section}{\numberline {12}Comando mv}{4}{section.12}
\contentsline {section}{\numberline {13}COmando SSH}{4}{section.13}
