\relax 
\providecommand\hyper@newdestlabel[2]{}
\catcode `"\active 
\catcode `<\active 
\catcode `>\active 
\@nameuse{es@quoting}
\providecommand\HyperFirstAtBeginDocument{\AtBeginDocument}
\HyperFirstAtBeginDocument{\ifx\hyper@anchor\@undefined
\global\let\oldcontentsline\contentsline
\gdef\contentsline#1#2#3#4{\oldcontentsline{#1}{#2}{#3}}
\global\let\oldnewlabel\newlabel
\gdef\newlabel#1#2{\newlabelxx{#1}#2}
\gdef\newlabelxx#1#2#3#4#5#6{\oldnewlabel{#1}{{#2}{#3}}}
\AtEndDocument{\ifx\hyper@anchor\@undefined
\let\contentsline\oldcontentsline
\let\newlabel\oldnewlabel
\fi}
\fi}
\global\let\hyper@last\relax 
\gdef\HyperFirstAtBeginDocument#1{#1}
\providecommand\HyField@AuxAddToFields[1]{}
\providecommand\HyField@AuxAddToCoFields[2]{}
\providecommand\tcolorbox@label[2]{}
\select@language{spanish}
\@writefile{toc}{\select@language{spanish}}
\@writefile{lof}{\select@language{spanish}}
\@writefile{lot}{\select@language{spanish}}
\pgfsyspdfmark {pgfid1}{13579834}{44027081}
\pgfsyspdfmark {pgfid2}{13921710}{44027081}
\@writefile{toc}{\contentsline {section}{\numberline {1}Comando pwd}{1}{section.1}}
\@writefile{lof}{\contentsline {figure}{\numberline {1}{\ignorespaces Comando pwd}}{2}{figure.1}}
\@writefile{toc}{\contentsline {section}{\numberline {2}Comando cd root}{2}{section.2}}
\@writefile{lof}{\contentsline {figure}{\numberline {2}{\ignorespaces Comando cd para dirigierse al directorio ra\IeC {\'\i }z}}{2}{figure.2}}
\@writefile{toc}{\contentsline {section}{\numberline {3}Comando ls}{2}{section.3}}
\@writefile{lof}{\contentsline {figure}{\numberline {3}{\ignorespaces Comando ls para listar}}{2}{figure.3}}
\@writefile{toc}{\contentsline {section}{\numberline {4}Comando tree}{2}{section.4}}
\@writefile{lof}{\contentsline {figure}{\numberline {4}{\ignorespaces Comando tree}}{2}{figure.4}}
\@writefile{toc}{\contentsline {section}{\numberline {5}Comando cd home}{3}{section.5}}
\@writefile{lof}{\contentsline {figure}{\numberline {5}{\ignorespaces Comando cd}}{3}{figure.5}}
\@writefile{toc}{\contentsline {section}{\numberline {6}Comando mkdir}{3}{section.6}}
\@writefile{lof}{\contentsline {figure}{\numberline {6}{\ignorespaces Comando mkdir}}{3}{figure.6}}
\@writefile{toc}{\contentsline {section}{\numberline {7}Comando sed}{3}{section.7}}
\@writefile{lof}{\contentsline {figure}{\numberline {7}{\ignorespaces Comando sed}}{3}{figure.7}}
\@writefile{toc}{\contentsline {section}{\numberline {8}Comando nano}{3}{section.8}}
\@writefile{lof}{\contentsline {figure}{\numberline {8}{\ignorespaces Comando nano}}{3}{figure.8}}
\@writefile{toc}{\contentsline {section}{\numberline {9}Comando cat}{4}{section.9}}
\@writefile{lof}{\contentsline {figure}{\numberline {9}{\ignorespaces Comando cat}}{4}{figure.9}}
\@writefile{toc}{\contentsline {section}{\numberline {10}Comando updatedb}{4}{section.10}}
\@writefile{lof}{\contentsline {figure}{\numberline {10}{\ignorespaces Comando updatedb}}{4}{figure.10}}
\@writefile{toc}{\contentsline {section}{\numberline {11}Comando find}{4}{section.11}}
\@writefile{lof}{\contentsline {figure}{\numberline {11}{\ignorespaces Comando find}}{4}{figure.11}}
\@writefile{toc}{\contentsline {section}{\numberline {12}Comando mv}{4}{section.12}}
\@writefile{lof}{\contentsline {figure}{\numberline {12}{\ignorespaces Comando mv}}{4}{figure.12}}
\@writefile{toc}{\contentsline {section}{\numberline {13}COmando SSH}{4}{section.13}}
\@writefile{lof}{\contentsline {figure}{\numberline {13}{\ignorespaces Comando ssh}}{5}{figure.13}}
\bibstyle{plain}
\bibdata{2.bibliography}
